digraph "Guix package" {
  "139945605644640" [label = "gcc-toolchain@11.2.0", shape = box, fontname = sans];
  "139945605644640" -> "140349403991840" [color = blue];
  "139945605644640" -> "139945605592448" [color = blue];
  "139945605644640" -> "139945605594560" [color = blue];
  "139945605644640" -> "139945605594736" [color = blue];
  "139945605644640" -> "139945605594736" [color = blue];
  "139945605644640" -> "139945605594736" [color = blue];
  "139945605592448" [label = "ld-wrapper@0", shape = box, fontname = sans];
  "139945605594560" [label = "binutils@2.37", shape = box, fontname = sans];
  "139945605594736" [label = "glibc@2.33", shape = box, fontname = sans];
  "140349403991840" [label = "gcc@11.2.0", shape = box, fontname = sans];
  "140349403991840" -> "140349403075792" [color = darkgoldenrod];
  "140349403991840" -> "140349401959520" [color = darkgoldenrod];
  "140349403991840" -> "140349404017696" [color = darkgoldenrod];
  "140349403991840" -> "140349403991312" [color = darkgoldenrod];
  "140349403991840" -> "140349617478928" [color = darkgoldenrod];
  "140349403991840" -> "140349617478576" [color = darkgoldenrod];
  "140349403991840" -> "140349617478400" [color = darkgoldenrod];
  "140349403991840" -> "140349402680944" [color = darkgoldenrod];
  "140349403991840" -> "140349403731328" [color = darkgoldenrod];
  "140349403075792" [label = "perl@5.34.0", shape = box, fontname = sans];
  "140349403075792" -> "140349403032320" [color = cyan3];
  "140349403032320" [label = "coreutils-minimal@8.32", shape = box, fontname = sans];
  "140349401959520" [label = "texinfo@6.7", shape = box, fontname = sans];
  "140349401959520" -> "140349403075792" [color = magenta];
  "140349401959520" -> "140349401915392" [color = magenta];
  "140349401959520" -> "140349401915392" [color = magenta];
  "140349401959520" -> "140349403075792" [color = magenta];
  "140349401915392" [label = "ncurses@6.2.20210619", shape = box, fontname = sans];
  "140349401915392" -> "140349675463712" [color = dimgrey];
  "140349675463712" [label = "pkg-config@0.29.2", shape = box, fontname = sans];
  "140349404017696" [label = "isl@0.23", shape = box, fontname = sans];
  "140349404017696" -> "140349617478928" [color = darkviolet];
  "140349617478928" [label = "gmp@6.2.1", shape = box, fontname = sans];
  "140349617478928" -> "140349675465120" [color = cyan3];
  "140349675465120" [label = "m4@1.4.18", shape = box, fontname = sans];
  "140349403991312" [label = "libstdc++-headers@10.3.0", shape = box, fontname = sans];
  "140349403991312" -> "140349403991488" [color = darkseagreen];
  "140349403991488" [label = "libstdc++@10.3.0", shape = box, fontname = sans];
  "140349617478576" [label = "mpfr@4.1.0", shape = box, fontname = sans];
  "140349617478576" -> "140349617478928" [color = red];
  "140349617478400" [label = "mpc@1.2.1", shape = box, fontname = sans];
  "140349617478400" -> "140349617478928" [color = dimgrey];
  "140349617478400" -> "140349617478576" [color = dimgrey];
  "140349402680944" [label = "libelf@0.8.13", shape = box, fontname = sans];
  "140349402680944" -> "140349403501952" [color = red];
  "140349402680944" -> "140349403500544" [color = red];
  "140349403501952" [label = "autoconf@2.69", shape = box, fontname = sans];
  "140349403501952" -> "140349403075792" [color = darkgoldenrod];
  "140349403501952" -> "140349675465120" [color = darkgoldenrod];
  "140349403501952" -> "140349402680416" [color = darkgoldenrod];
  "140349403501952" -> "140349403075792" [color = darkgoldenrod];
  "140349403501952" -> "140349675465120" [color = darkgoldenrod];
  "140349402680416" [label = "bash-minimal@5.1.8", shape = box, fontname = sans];
  "140349403500544" [label = "automake@1.16.3", shape = box, fontname = sans];
  "140349403500544" -> "140349403501072" [color = magenta];
  "140349403500544" -> "140349403075792" [color = magenta];
  "140349403500544" -> "140349403501072" [color = magenta];
  "140349403500544" -> "140349402680416" [color = magenta];
  "140349403500544" -> "140349403075792" [color = magenta];
  "140349403501072" [label = "autoconf-wrapper@2.69", shape = box, fontname = sans];
  "140349403731328" [label = "zlib@1.2.11", shape = box, fontname = sans];

}
