<?xml version="1.0" encoding="UTF-8" standalone="no"?>
<!DOCTYPE svg PUBLIC "-//W3C//DTD SVG 1.1//EN"
 "http://www.w3.org/Graphics/SVG/1.1/DTD/svg11.dtd">
<!-- Generated by graphviz version 2.42.3 (20191010.1750)
 -->
<!-- Title: Guix reverse&#45;package Pages: 1 -->
<svg width="1286pt" height="963pt"
 viewBox="0.00 0.00 1286.00 963.00" xmlns="http://www.w3.org/2000/svg" xmlns:xlink="http://www.w3.org/1999/xlink">
<g id="graph0" class="graph" transform="scale(1 1) rotate(0) translate(4 959)">
<title>Guix reverse&#45;package</title>
<polygon fill="white" stroke="transparent" points="-4,4 -4,-959 1282,-959 1282,4 -4,4"/>
<!-- 140168742316800 -->
<g id="node1" class="node">
<title>140168742316800</title>
<polygon fill="none" stroke="black" points="752.71,-497.89 647.71,-497.89 647.71,-461.89 752.71,-461.89 752.71,-497.89"/>
<text text-anchor="middle" x="700.21" y="-476.19" font-family="sans" font-size="14.00">eigen@3.3.8</text>
</g>
<!-- 140168756414704 -->
<g id="node2" class="node">
<title>140168756414704</title>
<polygon fill="none" stroke="black" points="1240.38,-350.83 1025.38,-350.83 1025.38,-314.83 1240.38,-314.83 1240.38,-350.83"/>
<text text-anchor="middle" x="1132.88" y="-329.13" font-family="sans" font-size="14.00">celestia@1.6.1&#45;815.9dbdf29</text>
</g>
<!-- 140168742316800&#45;&gt;140168756414704 -->
<g id="edge1" class="edge">
<title>140168742316800&#45;&gt;140168756414704</title>
<path fill="none" stroke="#8b7765" d="M752.83,-462.01C832.74,-434.85 984.42,-383.29 1070.02,-354.19"/>
<polygon fill="#8b7765" stroke="#8b7765" points="1071.27,-357.47 1079.61,-350.93 1069.02,-350.84 1071.27,-357.47"/>
</g>
<!-- 140168756414528 -->
<g id="node3" class="node">
<title>140168756414528</title>
<polygon fill="none" stroke="black" points="1038.11,-79.9 795.11,-79.9 795.11,-43.9 1038.11,-43.9 1038.11,-79.9"/>
<text text-anchor="middle" x="916.61" y="-58.2" font-family="sans" font-size="14.00">celestia&#45;gtk@1.6.1&#45;815.9dbdf29</text>
</g>
<!-- 140168742316800&#45;&gt;140168756414528 -->
<g id="edge2" class="edge">
<title>140168742316800&#45;&gt;140168756414528</title>
<path fill="none" stroke="#8b7765" d="M709.65,-461.67C743.82,-395.66 861.21,-168.91 902.28,-89.58"/>
<polygon fill="#8b7765" stroke="#8b7765" points="905.63,-90.72 907.12,-80.23 899.42,-87.5 905.63,-90.72"/>
</g>
<!-- 140168735546816 -->
<g id="node4" class="node">
<title>140168735546816</title>
<polygon fill="none" stroke="black" points="1148.13,-714.6 993.13,-714.6 993.13,-678.6 1148.13,-678.6 1148.13,-714.6"/>
<text text-anchor="middle" x="1070.63" y="-692.9" font-family="sans" font-size="14.00">guitarix&#45;lv2@0.43.1</text>
</g>
<!-- 140168742316800&#45;&gt;140168735546816 -->
<g id="edge3" class="edge">
<title>140168742316800&#45;&gt;140168735546816</title>
<path fill="none" stroke="#8b7765" d="M731.15,-498C798.1,-537.17 956.34,-629.74 1030.71,-673.25"/>
<polygon fill="#8b7765" stroke="#8b7765" points="1029.38,-676.52 1039.77,-678.55 1032.91,-670.48 1029.38,-676.52"/>
</g>
<!-- 140168735546992 -->
<g id="node5" class="node">
<title>140168735546992</title>
<polygon fill="none" stroke="black" points="833.72,-231.65 704.72,-231.65 704.72,-195.65 833.72,-195.65 833.72,-231.65"/>
<text text-anchor="middle" x="769.22" y="-209.95" font-family="sans" font-size="14.00">guitarix@0.43.1</text>
</g>
<!-- 140168742316800&#45;&gt;140168735546992 -->
<g id="edge4" class="edge">
<title>140168742316800&#45;&gt;140168735546992</title>
<path fill="none" stroke="#8b7765" d="M704.95,-461.59C716.82,-415.79 747.88,-295.97 762.02,-241.42"/>
<polygon fill="#8b7765" stroke="#8b7765" points="765.41,-242.28 764.53,-231.72 758.64,-240.53 765.41,-242.28"/>
</g>
<!-- 140168777417408 -->
<g id="node6" class="node">
<title>140168777417408</title>
<polygon fill="none" stroke="black" points="579.41,-720.9 454.41,-720.9 454.41,-684.9 579.41,-684.9 579.41,-720.9"/>
<text text-anchor="middle" x="516.91" y="-699.2" font-family="sans" font-size="14.00">sailfish@0.10.1</text>
</g>
<!-- 140168742316800&#45;&gt;140168777417408 -->
<g id="edge5" class="edge">
<title>140168742316800&#45;&gt;140168777417408</title>
<path fill="none" stroke="#8b7765" d="M685.21,-498.14C652.77,-537.61 576,-631.01 538.41,-676.75"/>
<polygon fill="#8b7765" stroke="#8b7765" points="535.51,-674.76 531.86,-684.71 540.91,-679.21 535.51,-674.76"/>
</g>
<!-- 140168777418992 -->
<g id="node7" class="node">
<title>140168777418992</title>
<polygon fill="none" stroke="black" points="859.77,-767.3 757.77,-767.3 757.77,-731.3 859.77,-731.3 859.77,-767.3"/>
<text text-anchor="middle" x="808.77" y="-745.6" font-family="sans" font-size="14.00">imp@2.15.0</text>
</g>
<!-- 140168742316800&#45;&gt;140168777418992 -->
<g id="edge6" class="edge">
<title>140168742316800&#45;&gt;140168777418992</title>
<path fill="none" stroke="#8b7765" d="M707.5,-497.99C726.12,-544.19 775.5,-666.74 797.7,-721.82"/>
<polygon fill="#8b7765" stroke="#8b7765" points="794.53,-723.31 801.51,-731.28 801.02,-720.7 794.53,-723.31"/>
</g>
<!-- 140168777484352 -->
<g id="node8" class="node">
<title>140168777484352</title>
<polygon fill="none" stroke="black" points="837.45,-35.67 605.45,-35.67 605.45,0.33 837.45,0.33 837.45,-35.67"/>
<text text-anchor="middle" x="721.45" y="-13.97" font-family="sans" font-size="14.00">nanopolish@0.11.1&#45;1.6331dc4</text>
</g>
<!-- 140168742316800&#45;&gt;140168777484352 -->
<g id="edge7" class="edge">
<title>140168742316800&#45;&gt;140168777484352</title>
<path fill="none" stroke="#8b7765" d="M701.04,-461.78C704.3,-390.95 716.18,-132.46 720.15,-46.03"/>
<polygon fill="#8b7765" stroke="#8b7765" points="723.65,-46.07 720.61,-35.92 716.66,-45.75 723.65,-46.07"/>
</g>
<!-- 140168777417056 -->
<g id="node9" class="node">
<title>140168777417056</title>
<polygon fill="none" stroke="black" points="585.79,-243.81 468.79,-243.81 468.79,-207.81 585.79,-207.81 585.79,-243.81"/>
<text text-anchor="middle" x="527.29" y="-222.11" font-family="sans" font-size="14.00">salmon@1.6.0</text>
</g>
<!-- 140168742316800&#45;&gt;140168777417056 -->
<g id="edge8" class="edge">
<title>140168742316800&#45;&gt;140168777417056</title>
<path fill="none" stroke="#8b7765" d="M687.77,-461.62C657.61,-417.31 580.48,-303.96 545.29,-252.25"/>
<polygon fill="#8b7765" stroke="#8b7765" points="548.14,-250.22 539.62,-243.92 542.35,-254.16 548.14,-250.22"/>
</g>
<!-- 140168724083216 -->
<g id="node10" class="node">
<title>140168724083216</title>
<polygon fill="none" stroke="black" points="562.18,-801.22 422.18,-801.22 422.18,-765.22 562.18,-765.22 562.18,-801.22"/>
<text text-anchor="middle" x="492.18" y="-779.52" font-family="sans" font-size="14.00">openbabel@3.1.1</text>
</g>
<!-- 140168742316800&#45;&gt;140168724083216 -->
<g id="edge9" class="edge">
<title>140168742316800&#45;&gt;140168724083216</title>
<path fill="none" stroke="#8b7765" d="M687.82,-497.96C652.64,-549.26 551.99,-696 510.45,-756.57"/>
<polygon fill="#8b7765" stroke="#8b7765" points="507.54,-754.64 504.77,-764.86 513.31,-758.6 507.54,-754.64"/>
</g>
<!-- 140168724084976 -->
<g id="node11" class="node">
<title>140168724084976</title>
<polygon fill="none" stroke="black" points="596.62,-144.49 432.62,-144.49 432.62,-108.49 596.62,-108.49 596.62,-144.49"/>
<text text-anchor="middle" x="514.62" y="-122.79" font-family="sans" font-size="14.00">avogadrolibs@1.93.0</text>
</g>
<!-- 140168742316800&#45;&gt;140168724084976 -->
<g id="edge10" class="edge">
<title>140168742316800&#45;&gt;140168724084976</title>
<path fill="none" stroke="#8b7765" d="M690.75,-461.88C660.41,-404.12 565.42,-223.23 529.02,-153.91"/>
<polygon fill="#8b7765" stroke="#8b7765" points="532.03,-152.12 524.28,-144.89 525.83,-155.37 532.03,-152.12"/>
</g>
<!-- 140168724084800 -->
<g id="node12" class="node">
<title>140168724084800</title>
<polygon fill="none" stroke="black" points="1052.69,-235.21 903.69,-235.21 903.69,-199.21 1052.69,-199.21 1052.69,-235.21"/>
<text text-anchor="middle" x="978.19" y="-213.51" font-family="sans" font-size="14.00">avogadro2@1.93.0</text>
</g>
<!-- 140168742316800&#45;&gt;140168724084800 -->
<g id="edge11" class="edge">
<title>140168742316800&#45;&gt;140168724084800</title>
<path fill="none" stroke="#8b7765" d="M719.31,-461.84C767.82,-416.01 895.8,-295.06 951.58,-242.36"/>
<polygon fill="#8b7765" stroke="#8b7765" points="954.09,-244.8 958.95,-235.39 949.28,-239.71 954.09,-244.8"/>
</g>
<!-- 140168725662992 -->
<g id="node13" class="node">
<title>140168725662992</title>
<polygon fill="none" stroke="black" points="433.08,-845.38 167.08,-845.38 167.08,-809.38 433.08,-809.38 433.08,-845.38"/>
<text text-anchor="middle" x="300.08" y="-823.68" font-family="sans" font-size="14.00">emulation&#45;station@2.0.1&#45;1.9cc42ad</text>
</g>
<!-- 140168742316800&#45;&gt;140168725662992 -->
<g id="edge12" class="edge">
<title>140168742316800&#45;&gt;140168725662992</title>
<path fill="none" stroke="#8b7765" d="M679.26,-498.09C612.55,-556.02 404.97,-736.28 328.63,-802.58"/>
<polygon fill="#8b7765" stroke="#8b7765" points="326.07,-800.16 320.82,-809.36 330.66,-805.45 326.07,-800.16"/>
</g>
<!-- 140168725564160 -->
<g id="node14" class="node">
<title>140168725564160</title>
<polygon fill="none" stroke="black" points="970.48,-190.53 842.48,-190.53 842.48,-154.53 970.48,-154.53 970.48,-190.53"/>
<text text-anchor="middle" x="906.48" y="-168.83" font-family="sans" font-size="14.00">freecad@0.19.2</text>
</g>
<!-- 140168742316800&#45;&gt;140168725564160 -->
<g id="edge13" class="edge">
<title>140168742316800&#45;&gt;140168725564160</title>
<path fill="none" stroke="#8b7765" d="M712.49,-461.59C747.46,-409.48 847.64,-260.2 888.65,-199.1"/>
<polygon fill="#8b7765" stroke="#8b7765" points="891.59,-201 894.26,-190.74 885.78,-197.09 891.59,-201"/>
</g>
<!-- 140168725562224 -->
<g id="node15" class="node">
<title>140168725562224</title>
<polygon fill="none" stroke="black" points="670.82,-790.95 570.82,-790.95 570.82,-754.95 670.82,-754.95 670.82,-790.95"/>
<text text-anchor="middle" x="620.82" y="-769.25" font-family="sans" font-size="14.00">libigl@2.3.0</text>
</g>
<!-- 140168742316800&#45;&gt;140168725562224 -->
<g id="edge14" class="edge">
<title>140168742316800&#45;&gt;140168725562224</title>
<path fill="none" stroke="#8b7765" d="M695.24,-498.23C681.79,-547.87 644.59,-685.2 628.46,-744.77"/>
<polygon fill="#8b7765" stroke="#8b7765" points="625.02,-744.06 625.79,-754.63 631.78,-745.89 625.02,-744.06"/>
</g>
<!-- 140168725563104 -->
<g id="node16" class="node">
<title>140168725563104</title>
<polygon fill="none" stroke="black" points="1114.46,-440.89 965.46,-440.89 965.46,-404.89 1114.46,-404.89 1114.46,-440.89"/>
<text text-anchor="middle" x="1039.96" y="-419.19" font-family="sans" font-size="14.00">meshlab@2020.06</text>
</g>
<!-- 140168742316800&#45;&gt;140168725563104 -->
<g id="edge15" class="edge">
<title>140168742316800&#45;&gt;140168725563104</title>
<path fill="none" stroke="#8b7765" d="M752.92,-471.05C806.97,-461.98 891.87,-447.74 955.34,-437.09"/>
<polygon fill="#8b7765" stroke="#8b7765" points="956.05,-440.52 965.33,-435.41 954.89,-433.61 956.05,-440.52"/>
</g>
<!-- 140168725564512 -->
<g id="node17" class="node">
<title>140168725564512</title>
<polygon fill="none" stroke="black" points="1100.39,-306.6 944.39,-306.6 944.39,-270.6 1100.39,-270.6 1100.39,-306.6"/>
<text text-anchor="middle" x="1022.39" y="-284.9" font-family="sans" font-size="14.00">openscad@2021.01</text>
</g>
<!-- 140168742316800&#45;&gt;140168725564512 -->
<g id="edge16" class="edge">
<title>140168742316800&#45;&gt;140168725564512</title>
<path fill="none" stroke="#8b7765" d="M730.81,-461.73C789.62,-426.81 918.33,-350.39 983.27,-311.83"/>
<polygon fill="#8b7765" stroke="#8b7765" points="985.18,-314.76 992,-306.65 981.61,-308.74 985.18,-314.76"/>
</g>
<!-- 140168725518400 -->
<g id="node18" class="node">
<title>140168725518400</title>
<polygon fill="none" stroke="black" points="659.98,-888.27 498.98,-888.27 498.98,-852.27 659.98,-852.27 659.98,-888.27"/>
<text text-anchor="middle" x="579.48" y="-866.57" font-family="sans" font-size="14.00">libfive@0&#45;4.8ca1b86</text>
</g>
<!-- 140168742316800&#45;&gt;140168725518400 -->
<g id="edge17" class="edge">
<title>140168742316800&#45;&gt;140168725518400</title>
<path fill="none" stroke="#8b7765" d="M694.63,-497.94C675.36,-560.24 611.54,-766.59 588.16,-842.2"/>
<polygon fill="#8b7765" stroke="#8b7765" points="584.75,-841.38 585.14,-851.97 591.44,-843.45 584.75,-841.38"/>
</g>
<!-- 140168725562048 -->
<g id="node19" class="node">
<title>140168725562048</title>
<polygon fill="none" stroke="black" points="984.28,-699.54 835.28,-699.54 835.28,-663.54 984.28,-663.54 984.28,-699.54"/>
<text text-anchor="middle" x="909.78" y="-677.84" font-family="sans" font-size="14.00">prusa&#45;slicer@2.4.0</text>
</g>
<!-- 140168742316800&#45;&gt;140168725562048 -->
<g id="edge18" class="edge">
<title>140168742316800&#45;&gt;140168725562048</title>
<path fill="none" stroke="#8b7765" d="M719.18,-498.15C756.82,-534.36 841,-615.36 883.77,-656.51"/>
<polygon fill="#8b7765" stroke="#8b7765" points="881.37,-659.06 891,-663.48 886.22,-654.02 881.37,-659.06"/>
</g>
<!-- 140168725162048 -->
<g id="node20" class="node">
<title>140168725162048</title>
<polygon fill="none" stroke="black" points="515.72,-488.72 275.72,-488.72 275.72,-452.72 515.72,-452.72 515.72,-488.72"/>
<text text-anchor="middle" x="395.72" y="-467.02" font-family="sans" font-size="14.00">nextpnr&#45;ice40@0.0.0&#45;1.fbe486d</text>
</g>
<!-- 140168742316800&#45;&gt;140168725162048 -->
<g id="edge19" class="edge">
<title>140168742316800&#45;&gt;140168725162048</title>
<path fill="none" stroke="#8b7765" d="M647.52,-478.31C613.95,-477.3 568.9,-475.94 526.17,-474.65"/>
<polygon fill="#8b7765" stroke="#8b7765" points="526.05,-471.15 515.95,-474.34 525.84,-478.14 526.05,-471.15"/>
</g>
<!-- 140168727753584 -->
<g id="node21" class="node">
<title>140168727753584</title>
<polygon fill="none" stroke="black" points="1277.56,-489.59 1044.56,-489.59 1044.56,-453.59 1277.56,-453.59 1277.56,-489.59"/>
<text text-anchor="middle" x="1161.06" y="-467.89" font-family="sans" font-size="14.00">marble&#45;marcher@0&#45;1.e580460</text>
</g>
<!-- 140168742316800&#45;&gt;140168727753584 -->
<g id="edge20" class="edge">
<title>140168742316800&#45;&gt;140168727753584</title>
<path fill="none" stroke="#8b7765" d="M753.07,-478.94C821.1,-477.72 941.5,-475.55 1033.94,-473.88"/>
<polygon fill="#8b7765" stroke="#8b7765" points="1034.27,-477.38 1044.21,-473.7 1034.15,-470.38 1034.27,-477.38"/>
</g>
<!-- 140168754817264 -->
<g id="node22" class="node">
<title>140168754817264</title>
<polygon fill="none" stroke="black" points="826.42,-146.45 694.42,-146.45 694.42,-110.45 826.42,-110.45 826.42,-146.45"/>
<text text-anchor="middle" x="760.42" y="-124.75" font-family="sans" font-size="14.00">monado@21.0.0</text>
</g>
<!-- 140168742316800&#45;&gt;140168754817264 -->
<g id="edge21" class="edge">
<title>140168742316800&#45;&gt;140168754817264</title>
<path fill="none" stroke="#8b7765" d="M703.36,-461.49C713.24,-403.85 743.63,-226.45 755.55,-156.87"/>
<polygon fill="#8b7765" stroke="#8b7765" points="759.06,-157.11 757.3,-146.66 752.16,-155.93 759.06,-157.11"/>
</g>
<!-- 140168756534896 -->
<g id="node23" class="node">
<title>140168756534896</title>
<polygon fill="none" stroke="black" points="400.78,-578.43 229.78,-578.43 229.78,-542.43 400.78,-542.43 400.78,-578.43"/>
<text text-anchor="middle" x="315.28" y="-556.73" font-family="sans" font-size="14.00">insight&#45;toolkit@4.12.2</text>
</g>
<!-- 140168742316800&#45;&gt;140168756534896 -->
<g id="edge22" class="edge">
<title>140168742316800&#45;&gt;140168756534896</title>
<path fill="none" stroke="#8b7765" d="M647.49,-490.92C586.7,-503.64 485.55,-524.8 410.8,-540.44"/>
<polygon fill="#8b7765" stroke="#8b7765" points="409.97,-537.04 400.9,-542.51 411.4,-543.89 409.97,-537.04"/>
</g>
<!-- 140168756496096 -->
<g id="node24" class="node">
<title>140168756496096</title>
<polygon fill="none" stroke="black" points="986.26,-527.48 897.26,-527.48 897.26,-491.48 986.26,-491.48 986.26,-527.48"/>
<text text-anchor="middle" x="941.76" y="-505.78" font-family="sans" font-size="14.00">vtk@6.3.0</text>
</g>
<!-- 140168742316800&#45;&gt;140168756496096 -->
<g id="edge23" class="edge">
<title>140168742316800&#45;&gt;140168756496096</title>
<path fill="none" stroke="#8b7765" d="M752.92,-486.35C792.64,-491.21 846.93,-497.86 887.11,-502.78"/>
<polygon fill="#8b7765" stroke="#8b7765" points="886.91,-506.29 897.26,-504.03 887.76,-499.34 886.91,-506.29"/>
</g>
<!-- 140168756496624 -->
<g id="node25" class="node">
<title>140168756496624</title>
<polygon fill="none" stroke="black" points="747.37,-728.09 655.37,-728.09 655.37,-692.09 747.37,-692.09 747.37,-728.09"/>
<text text-anchor="middle" x="701.37" y="-706.39" font-family="sans" font-size="14.00">mia@2.4.6</text>
</g>
<!-- 140168742316800&#45;&gt;140168756496624 -->
<g id="edge24" class="edge">
<title>140168742316800&#45;&gt;140168756496624</title>
<path fill="none" stroke="#8b7765" d="M700.3,-497.96C700.5,-537.86 700.98,-633.8 701.23,-681.77"/>
<polygon fill="#8b7765" stroke="#8b7765" points="697.73,-681.81 701.28,-691.79 704.73,-681.77 697.73,-681.81"/>
</g>
<!-- 140168756496272 -->
<g id="node26" class="node">
<title>140168756496272</title>
<polygon fill="none" stroke="black" points="687.17,-254.25 598.17,-254.25 598.17,-218.25 687.17,-218.25 687.17,-254.25"/>
<text text-anchor="middle" x="642.67" y="-232.55" font-family="sans" font-size="14.00">vtk@9.0.1</text>
</g>
<!-- 140168742316800&#45;&gt;140168756496272 -->
<g id="edge25" class="edge">
<title>140168742316800&#45;&gt;140168756496272</title>
<path fill="none" stroke="#8b7765" d="M695.88,-461.58C685.9,-419.32 661.21,-314.77 649.3,-264.34"/>
<polygon fill="#8b7765" stroke="#8b7765" points="652.67,-263.37 646.97,-254.44 645.86,-264.98 652.67,-263.37"/>
</g>
<!-- 140168756494336 -->
<g id="node27" class="node">
<title>140168756494336</title>
<polygon fill="none" stroke="black" points="1104.03,-645.79 942.03,-645.79 942.03,-609.79 1104.03,-609.79 1104.03,-645.79"/>
<text text-anchor="middle" x="1023.03" y="-624.09" font-family="sans" font-size="14.00">insight&#45;toolkit@5.0.0</text>
</g>
<!-- 140168742316800&#45;&gt;140168756494336 -->
<g id="edge26" class="edge">
<title>140168742316800&#45;&gt;140168756494336</title>
<path fill="none" stroke="#8b7765" d="M739.79,-498.03C798.88,-525.1 910.06,-576.04 974.14,-605.4"/>
<polygon fill="#8b7765" stroke="#8b7765" points="973.08,-608.76 983.63,-609.74 975.99,-602.39 973.08,-608.76"/>
</g>
<!-- 140168756535072 -->
<g id="node28" class="node">
<title>140168756535072</title>
<polygon fill="none" stroke="black" points="714.77,-100.23 543.77,-100.23 543.77,-64.23 714.77,-64.23 714.77,-100.23"/>
<text text-anchor="middle" x="629.27" y="-78.53" font-family="sans" font-size="14.00">insight&#45;toolkit@4.13.2</text>
</g>
<!-- 140168742316800&#45;&gt;140168756535072 -->
<g id="edge27" class="edge">
<title>140168742316800&#45;&gt;140168756535072</title>
<path fill="none" stroke="#8b7765" d="M696.98,-461.77C685.69,-398.5 647.98,-187.09 634.29,-110.36"/>
<polygon fill="#8b7765" stroke="#8b7765" points="637.72,-109.69 632.52,-100.46 630.83,-110.92 637.72,-109.69"/>
</g>
<!-- 140168728849856 -->
<g id="node29" class="node">
<title>140168728849856</title>
<polygon fill="none" stroke="black" points="457.49,-288.39 289.49,-288.39 289.49,-252.39 457.49,-252.39 457.49,-288.39"/>
<text text-anchor="middle" x="373.49" y="-266.69" font-family="sans" font-size="14.00">luminance&#45;hdr@2.6.0</text>
</g>
<!-- 140168742316800&#45;&gt;140168728849856 -->
<g id="edge28" class="edge">
<title>140168742316800&#45;&gt;140168728849856</title>
<path fill="none" stroke="#8b7765" d="M672.07,-461.85C612.96,-423.95 475.94,-336.09 410.1,-293.87"/>
<polygon fill="#8b7765" stroke="#8b7765" points="411.98,-290.92 401.67,-288.47 408.2,-296.81 411.98,-290.92"/>
</g>
<!-- 140168753259552 -->
<g id="node30" class="node">
<title>140168753259552</title>
<polygon fill="none" stroke="black" points="948.88,-354.09 850.88,-354.09 850.88,-318.09 948.88,-318.09 948.88,-354.09"/>
<text text-anchor="middle" x="899.88" y="-332.39" font-family="sans" font-size="14.00">krita@5.0.0</text>
</g>
<!-- 140168742316800&#45;&gt;140168753259552 -->
<g id="edge29" class="edge">
<title>140168742316800&#45;&gt;140168753259552</title>
<path fill="none" stroke="#8b7765" d="M725.5,-461.68C761.2,-435.97 826.47,-388.96 866.24,-360.32"/>
<polygon fill="#8b7765" stroke="#8b7765" points="868.73,-362.84 874.8,-354.16 864.64,-357.16 868.73,-362.84"/>
</g>
<!-- 140168752029472 -->
<g id="node31" class="node">
<title>140168752029472</title>
<polygon fill="none" stroke="black" points="524.58,-622.66 405.58,-622.66 405.58,-586.66 524.58,-586.66 524.58,-622.66"/>
<text text-anchor="middle" x="465.08" y="-600.96" font-family="sans" font-size="14.00">shogun@6.1.3</text>
</g>
<!-- 140168742316800&#45;&gt;140168752029472 -->
<g id="edge30" class="edge">
<title>140168742316800&#45;&gt;140168752029472</title>
<path fill="none" stroke="#8b7765" d="M666.27,-497.9C624.51,-520.06 553.56,-557.71 508.04,-581.87"/>
<polygon fill="#8b7765" stroke="#8b7765" points="506.2,-578.88 499.01,-586.66 509.49,-585.06 506.2,-578.88"/>
</g>
<!-- 140168752046784 -->
<g id="node32" class="node">
<title>140168752046784</title>
<polygon fill="none" stroke="black" points="413.42,-383.16 231.42,-383.16 231.42,-347.16 413.42,-347.16 413.42,-383.16"/>
<text text-anchor="middle" x="322.42" y="-361.46" font-family="sans" font-size="14.00">python&#45;pytorch@1.10.0</text>
</g>
<!-- 140168742316800&#45;&gt;140168752046784 -->
<g id="edge31" class="edge">
<title>140168742316800&#45;&gt;140168752046784</title>
<path fill="none" stroke="#8b7765" d="M647.68,-463.94C580.93,-443.67 465.54,-408.62 391.66,-386.19"/>
<polygon fill="#8b7765" stroke="#8b7765" points="392.55,-382.8 381.97,-383.24 390.52,-389.5 392.55,-382.8"/>
</g>
<!-- 140168734996896 -->
<g id="node33" class="node">
<title>140168734996896</title>
<polygon fill="none" stroke="black" points="365.06,-427.43 114.06,-427.43 114.06,-391.43 365.06,-391.43 365.06,-427.43"/>
<text text-anchor="middle" x="239.56" y="-405.73" font-family="sans" font-size="14.00">dune&#45;pdelab@2.7.0&#45;git&#45;476fe437</text>
</g>
<!-- 140168742316800&#45;&gt;140168734996896 -->
<g id="edge32" class="edge">
<title>140168742316800&#45;&gt;140168734996896</title>
<path fill="none" stroke="#8b7765" d="M647.37,-471.81C579.53,-461.43 459.58,-443.09 367.27,-428.97"/>
<polygon fill="#8b7765" stroke="#8b7765" points="367.71,-425.49 357.3,-427.44 366.65,-432.41 367.71,-425.49"/>
</g>
<!-- 140168734927264 -->
<g id="node34" class="node">
<title>140168734927264</title>
<polygon fill="none" stroke="black" points="1055.79,-910.49 805.79,-910.49 805.79,-874.49 1055.79,-874.49 1055.79,-910.49"/>
<text text-anchor="middle" x="930.79" y="-888.79" font-family="sans" font-size="14.00">ceres&#45;solver&#45;benchmarks@1.14.0</text>
</g>
<!-- 140168742316800&#45;&gt;140168734927264 -->
<g id="edge33" class="edge">
<title>140168742316800&#45;&gt;140168734927264</title>
<path fill="none" stroke="#8b7765" d="M710.41,-498.16C747.1,-563.8 872.39,-788 915.82,-865.71"/>
<polygon fill="#8b7765" stroke="#8b7765" points="912.77,-867.42 920.7,-874.44 918.88,-864.01 912.77,-867.42"/>
</g>
<!-- 140168734888112 -->
<g id="node35" class="node">
<title>140168734888112</title>
<polygon fill="none" stroke="black" points="479.57,-188.7 275.57,-188.7 275.57,-152.7 479.57,-152.7 479.57,-188.7"/>
<text text-anchor="middle" x="377.57" y="-167" font-family="sans" font-size="14.00">arpack&#45;ng&#45;openmpi@3.8.0</text>
</g>
<!-- 140168742316800&#45;&gt;140168734888112 -->
<g id="edge34" class="edge">
<title>140168742316800&#45;&gt;140168734888112</title>
<path fill="none" stroke="#8b7765" d="M680.99,-461.48C625.96,-408.74 467.67,-257.04 404.28,-196.3"/>
<polygon fill="#8b7765" stroke="#8b7765" points="406.32,-193.41 396.68,-189.02 401.48,-198.46 406.32,-193.41"/>
</g>
<!-- 140168734927440 -->
<g id="node36" class="node">
<title>140168734927440</title>
<polygon fill="none" stroke="black" points="445.6,-695.97 285.6,-695.97 285.6,-659.97 445.6,-659.97 445.6,-695.97"/>
<text text-anchor="middle" x="365.6" y="-674.27" font-family="sans" font-size="14.00">ceres&#45;solver@1.14.0</text>
</g>
<!-- 140168742316800&#45;&gt;140168734927440 -->
<g id="edge35" class="edge">
<title>140168742316800&#45;&gt;140168734927440</title>
<path fill="none" stroke="#8b7765" d="M669.63,-498C608.79,-534.01 472.66,-614.59 405.14,-654.56"/>
<polygon fill="#8b7765" stroke="#8b7765" points="403.29,-651.59 396.47,-659.69 406.86,-657.61 403.29,-651.59"/>
</g>
<!-- 140168735009360 -->
<g id="node37" class="node">
<title>140168735009360</title>
<polygon fill="none" stroke="black" points="317.2,-534.17 0.2,-534.17 0.2,-498.17 317.2,-498.17 317.2,-534.17"/>
<text text-anchor="middle" x="158.7" y="-512.47" font-family="sans" font-size="14.00">dune&#45;pdelab&#45;openmpi@2.7.0&#45;git&#45;476fe437</text>
</g>
<!-- 140168742316800&#45;&gt;140168735009360 -->
<g id="edge36" class="edge">
<title>140168742316800&#45;&gt;140168735009360</title>
<path fill="none" stroke="#8b7765" d="M647.3,-483.44C573.82,-488.36 437.48,-497.49 327.46,-504.86"/>
<polygon fill="#8b7765" stroke="#8b7765" points="326.98,-501.39 317.24,-505.55 327.45,-508.37 326.98,-501.39"/>
</g>
<!-- 140168734888288 -->
<g id="node38" class="node">
<title>140168734888288</title>
<polygon fill="none" stroke="black" points="542.4,-339.15 405.4,-339.15 405.4,-303.15 542.4,-303.15 542.4,-339.15"/>
<text text-anchor="middle" x="473.9" y="-317.45" font-family="sans" font-size="14.00">arpack&#45;ng@3.3.0</text>
</g>
<!-- 140168742316800&#45;&gt;140168734888288 -->
<g id="edge37" class="edge">
<title>140168742316800&#45;&gt;140168734888288</title>
<path fill="none" stroke="#8b7765" d="M674.25,-461.69C633.34,-432.99 553.87,-377.25 508.28,-345.27"/>
<polygon fill="#8b7765" stroke="#8b7765" points="510.1,-342.27 499.9,-339.39 506.08,-348 510.1,-342.27"/>
</g>
<!-- 140168734888464 -->
<g id="node39" class="node">
<title>140168734888464</title>
<polygon fill="none" stroke="black" points="823.73,-856.93 686.73,-856.93 686.73,-820.93 823.73,-820.93 823.73,-856.93"/>
<text text-anchor="middle" x="755.23" y="-835.23" font-family="sans" font-size="14.00">arpack&#45;ng@3.8.0</text>
</g>
<!-- 140168742316800&#45;&gt;140168734888464 -->
<g id="edge38" class="edge">
<title>140168742316800&#45;&gt;140168734888464</title>
<path fill="none" stroke="#8b7765" d="M703.01,-498.19C711.99,-556.77 740.07,-739.99 750.91,-810.7"/>
<polygon fill="#8b7765" stroke="#8b7765" points="747.46,-811.31 752.44,-820.67 754.38,-810.25 747.46,-811.31"/>
</g>
<!-- 140168738598512 -->
<g id="node40" class="node">
<title>140168738598512</title>
<polygon fill="none" stroke="black" points="1001.48,-787.47 868.48,-787.47 868.48,-751.47 1001.48,-751.47 1001.48,-787.47"/>
<text text-anchor="middle" x="934.98" y="-765.77" font-family="sans" font-size="14.00">pybind11@2.6.2</text>
</g>
<!-- 140168742316800&#45;&gt;140168738598512 -->
<g id="edge39" class="edge">
<title>140168742316800&#45;&gt;140168738598512</title>
<path fill="none" stroke="#8b7765" d="M714.89,-498.01C755.08,-547.58 866.96,-685.58 913.86,-743.43"/>
<polygon fill="#8b7765" stroke="#8b7765" points="911.28,-745.8 920.3,-751.37 916.72,-741.39 911.28,-745.8"/>
</g>
<!-- 140168752139536 -->
<g id="node41" class="node">
<title>140168752139536</title>
<polygon fill="none" stroke="black" points="1187.61,-579.46 1008.61,-579.46 1008.61,-543.46 1187.61,-543.46 1187.61,-579.46"/>
<text text-anchor="middle" x="1098.11" y="-557.76" font-family="sans" font-size="14.00">fenics@2019.1.0.post0</text>
</g>
<!-- 140168742316800&#45;&gt;140168752139536 -->
<g id="edge40" class="edge">
<title>140168742316800&#45;&gt;140168752139536</title>
<path fill="none" stroke="#8b7765" d="M753.05,-490.73C815.89,-503.61 922.09,-525.38 1000.11,-541.37"/>
<polygon fill="#8b7765" stroke="#8b7765" points="999.46,-544.81 1009.96,-543.39 1000.87,-537.95 999.46,-544.81"/>
</g>
<!-- 140168752139712 -->
<g id="node42" class="node">
<title>140168752139712</title>
<polygon fill="none" stroke="black" points="840.53,-954.72 617.53,-954.72 617.53,-918.72 840.53,-918.72 840.53,-954.72"/>
<text text-anchor="middle" x="729.03" y="-933.02" font-family="sans" font-size="14.00">fenics&#45;dolfin@2019.1.0.post0</text>
</g>
<!-- 140168742316800&#45;&gt;140168752139712 -->
<g id="edge41" class="edge">
<title>140168742316800&#45;&gt;140168752139712</title>
<path fill="none" stroke="#8b7765" d="M701.36,-498.08C705.79,-568.42 721.85,-822.93 727.25,-908.45"/>
<polygon fill="#8b7765" stroke="#8b7765" points="723.76,-908.71 727.88,-918.47 730.75,-908.27 723.76,-908.71"/>
</g>
</g>
</svg>
