%!PS-Adobe-3.0 EPSF-3.0
%%Creator: cairo 1.16.0 (https://cairographics.org)
%%CreationDate: Mon Oct 23 16:17:59 2023
%%Pages: 1
%%DocumentData: Clean7Bit
%%LanguageLevel: 2
%%Title: T-Shirt Design Front: GNU Guix HPC Workshop Montpellier
%%BoundingBox: 0 0 658 750
%%EndComments
%%BeginProlog
50 dict begin
/q { gsave } bind def
/Q { grestore } bind def
/cm { 6 array astore concat } bind def
/w { setlinewidth } bind def
/J { setlinecap } bind def
/j { setlinejoin } bind def
/M { setmiterlimit } bind def
/d { setdash } bind def
/m { moveto } bind def
/l { lineto } bind def
/c { curveto } bind def
/h { closepath } bind def
/re { exch dup neg 3 1 roll 5 3 roll moveto 0 rlineto
      0 exch rlineto 0 rlineto closepath } bind def
/S { stroke } bind def
/f { fill } bind def
/f* { eofill } bind def
/n { newpath } bind def
/W { clip } bind def
/W* { eoclip } bind def
/BT { } bind def
/ET { } bind def
/BDC { mark 3 1 roll /BDC pdfmark } bind def
/EMC { mark /EMC pdfmark } bind def
/cairo_store_point { /cairo_point_y exch def /cairo_point_x exch def } def
/Tj { show currentpoint cairo_store_point } bind def
/TJ {
  {
    dup
    type /stringtype eq
    { show } { -0.001 mul 0 cairo_font_matrix dtransform rmoveto } ifelse
  } forall
  currentpoint cairo_store_point
} bind def
/cairo_selectfont { cairo_font_matrix aload pop pop pop 0 0 6 array astore
    cairo_font exch selectfont cairo_point_x cairo_point_y moveto } bind def
/Tf { pop /cairo_font exch def /cairo_font_matrix where
      { pop cairo_selectfont } if } bind def
/Td { matrix translate cairo_font_matrix matrix concatmatrix dup
      /cairo_font_matrix exch def dup 4 get exch 5 get cairo_store_point
      /cairo_font where { pop cairo_selectfont } if } bind def
/Tm { 2 copy 8 2 roll 6 array astore /cairo_font_matrix exch def
      cairo_store_point /cairo_font where { pop cairo_selectfont } if } bind def
/g { setgray } bind def
/rg { setrgbcolor } bind def
/d1 { setcachedevice } bind def
/cairo_data_source {
  CairoDataIndex CairoData length lt
    { CairoData CairoDataIndex get /CairoDataIndex CairoDataIndex 1 add def }
    { () } ifelse
} def
/cairo_flush_ascii85_file { cairo_ascii85_file status { cairo_ascii85_file flushfile } if } def
/cairo_image { image cairo_flush_ascii85_file } def
/cairo_imagemask { imagemask cairo_flush_ascii85_file } def
%%EndProlog
%%BeginSetup
%%EndSetup
%%Page: 1 1
%%BeginPageSetup
%%PageBoundingBox: 0 0 658 750
%%EndPageSetup
q 0 0 658 750 rectclip
1 0 0 -1 0 750 cm q
1 0.74902 0.176471 rg
314.723 721.562 m 314.723 749.906 l 343.07 749.906 l 343.07 721.562 l h
324.316 731.152 m 333.48 731.152 l 333.48 740.316 l 324.316 740.316 l h
324.316 731.152 m f
0.501961 g
2.834646 w
1 J
0 j
[] 0.0 d
4 M q 1 0 0 1 0 0 cm
120.879 215.707 105.43 105.43 re S Q
q 1 0 0 1 0 0 cm
431.488 215.707 105.426 105.43 re S Q
1 0.74902 0.176471 rg
90.562 614.703 m 90.562 618.715 l 92.625 619.004 94.395 619.625 95.867 
620.578 c 97.355 621.516 98.492 622.691 99.277 624.105 c 100.078 625.52 
100.52 627.086 100.594 628.805 c 95.609 628.805 l 95.473 625.594 93.59 623.664
 89.961 623.016 c 89.961 637.23 l 92.293 637.879 94.289 638.797 95.953 639.98
 c 97.633 641.164 98.902 642.531 99.762 644.078 c 100.621 645.629 101.051
 647.262 101.051 648.98 c 101.051 650.738 100.613 652.398 99.734 653.969
 c 98.875 655.516 97.652 656.832 96.066 657.922 c 94.48 658.992 92.645 659.688
 90.562 660.016 c 90.562 664.055 l 84.918 664.055 l 84.918 659.957 l 81.652
 659.441 79.082 658.227 77.207 656.316 c 75.336 654.387 74.398 651.863 74.398
 648.75 c 79.445 648.75 l 79.445 650.508 80.016 652.027 81.164 653.309 c
 82.328 654.57 83.82 655.418 85.633 655.859 c 85.633 640.957 l 83.094 640.098
 81.059 639.16 79.531 638.148 c 78 637.117 76.883 635.941 76.176 634.621
 c 75.488 633.305 75.145 631.738 75.145 629.922 c 75.145 626.922 76.004 
624.438 77.723 622.469 c 79.461 620.504 81.859 619.27 84.918 618.773 c 84.918
 614.703 l h
80.188 628.949 m 80.188 631.852 82.004 634.125 85.633 635.77 c 85.633 622.93
 l 83.723 623.273 82.34 624.008 81.48 625.137 c 80.617 626.262 80.188 627.535
 80.188 628.949 c h
89.961 655.973 m 91.223 655.742 92.332 655.285 93.285 654.598 c 94.262 
653.91 95.004 653.078 95.52 652.105 c 96.039 651.109 96.297 650.07 96.297
 648.98 c 96.297 645.887 94.184 643.66 89.961 642.301 c h
89.961 655.973 m f
154.789 671.68 m 153.012 671.68 151.367 671.477 149.859 671.074 c 148.367
 670.676 147.07 670.09 145.961 669.328 c 143.785 667.816 142.695 665.906
 142.695 663.598 c 142.695 662.258 143.027 660.969 143.695 659.727 c 144.367
 658.484 145.195 657.367 146.191 656.375 c 145.273 655.723 144.613 655.008
 144.215 654.223 c 143.812 653.422 143.609 652.496 143.609 651.445 c 143.609
 650.223 143.84 649.133 144.301 648.176 c 144.758 647.203 145.539 646.191
 146.648 645.141 c 146.648 644.566 l 146.418 644.434 146.125 644.098 145.762
 643.562 c 145.418 643.008 145.102 642.254 144.816 641.301 c 144.547 640.324
 144.414 639.199 144.414 637.918 c 144.414 635.949 144.902 634.184 145.875
 632.617 c 146.867 631.031 148.234 629.789 149.973 628.891 c 151.73 627.992
 153.699 627.543 155.879 627.543 c 157.082 627.543 158.094 627.715 158.914
 628.059 c 170.266 628.059 l 170.266 632.414 l 164.477 632.414 l 165.047
 633.102 165.469 633.922 165.734 634.879 c 166.004 635.836 166.137 636.789
 166.137 637.746 c 166.137 639.676 165.688 641.488 164.789 643.191 c 163.891
 644.871 162.641 646.219 161.035 647.23 c 159.43 648.242 157.617 648.75 
155.59 648.75 c 154.5 648.75 153.508 648.625 152.609 648.379 c 151.711 648.109
 150.832 647.746 149.973 647.289 c 149.152 647.746 148.578 648.227 148.254
 648.723 c 147.949 649.219 147.797 649.898 147.797 650.758 c 147.797 651.75
 148.293 652.465 149.285 652.906 c 150.297 653.344 151.598 653.566 153.184
 653.566 c 153.852 653.566 154.949 653.547 156.48 653.512 c 159.031 653.457
 l 161.668 653.457 163.863 654.051 165.621 655.234 c 166.672 655.941 167.457
 656.832 167.973 657.898 c 168.508 658.969 168.773 660.184 168.773 661.539
 c 168.773 662.973 168.441 664.309 167.77 665.551 c 167.102 666.812 166.137
 667.902 164.875 668.82 c 163.633 669.719 162.098 670.414 160.262 670.91
 c 158.43 671.426 156.602 671.684 154.789 671.684 c h
147.797 662.738 m 147.797 665.832 150.203 667.379 155.02 667.379 c 158 
667.379 160.215 666.863 161.668 665.832 c 162.336 665.371 162.84 664.82 
163.184 664.168 c 163.547 663.539 163.73 662.852 163.73 662.105 c 163.73
 660.711 163.215 659.688 162.184 659.039 c 161.168 658.371 159.965 658.035
 158.57 658.035 c 158.055 658.035 157.512 658.055 156.938 658.09 c 156.363
 658.113 155.953 658.121 155.707 658.121 c 154.961 658.18 154.254 658.211
 153.586 658.211 c 152.727 658.211 151.73 658.086 150.605 657.836 c 149.707
 658.391 149.008 659.105 148.512 659.984 c 148.035 660.863 147.797 661.781
 147.797 662.738 c h
149.172 638.031 m 149.172 640.039 149.727 641.613 150.832 642.762 c 151.961
 643.887 153.449 644.453 155.305 644.453 c 157.195 644.453 158.668 643.887
 159.719 642.762 c 160.789 641.633 161.324 640.059 161.324 638.031 c 161.324
 636.008 160.789 634.402 159.719 633.219 c 158.648 632.031 157.176 631.441
 155.305 631.441 c 154.141 631.441 153.09 631.707 152.152 632.242 c 151.215
 632.758 150.48 633.523 149.945 634.535 c 149.43 635.531 149.172 636.695
 149.172 638.031 c h
149.172 638.031 m f
188.492 660.043 m 184.918 660.043 182.348 659.086 180.781 657.176 c 179.234
 655.266 178.461 652.457 178.461 648.75 c 178.461 628.117 l 183.277 628.117
 l 183.277 646.801 l 183.277 648.809 183.41 650.461 183.676 651.762 c 183.965
 653.059 184.574 654.121 185.512 654.941 c 186.465 655.742 187.879 656.145
 189.754 656.145 c 191.699 656.145 193.305 655.629 194.566 654.598 c 195.828
 653.547 196.746 652.199 197.316 650.555 c 197.891 648.895 198.18 647.109
 198.18 645.195 c 198.18 628.117 l 203.109 628.117 l 203.109 652.82 l 203.109
 654.082 203.145 655.629 203.223 657.465 c 203.223 657.883 203.242 658.609
 203.281 659.641 c 198.75 659.641 l 198.523 655.457 l 197.434 657.043 196.027
 658.207 194.309 658.953 c 192.59 659.68 190.652 660.043 188.492 660.043
 c h
188.492 660.043 m f
214.055 628.117 m 228.211 628.117 l 228.211 655.398 l 237.27 655.398 l 
237.27 659.641 l 213.426 659.641 l 213.426 655.398 l 223.34 655.398 l 223.34
 632.129 l 214.055 632.129 l h
221.391 618.027 m 221.391 616.652 221.68 615.68 222.25 615.105 c 222.824
 614.531 223.801 614.246 225.176 614.246 c 226.551 614.246 227.523 614.531
 228.098 615.105 c 228.672 615.68 228.957 616.652 228.957 618.027 c 228.957
 619.402 228.672 620.379 228.098 620.953 c 227.523 621.523 226.551 621.812
 225.176 621.812 c 223.801 621.812 222.824 621.523 222.25 620.953 c 221.68
 620.379 221.391 619.402 221.391 618.027 c h
221.391 618.027 m f
256.957 643.879 m 247.441 628.117 l 252.832 628.117 l 259.652 639.809 l
 266.988 628.117 l 271.977 628.117 l 262.461 643.535 l 272.434 659.641 l
 266.93 659.641 l 259.652 647.434 l 251.973 659.641 l 246.871 659.641 l 
h
256.957 643.879 m f
327.375 659.984 m 324.699 659.984 322.453 659.191 320.637 657.605 c 318.844
 656 317.504 653.949 316.625 651.445 c 315.766 648.922 315.336 646.266 315.336
 643.477 c 315.336 640.879 315.812 638.367 316.77 635.941 c 317.723 633.516
 319.121 631.535 320.953 630.008 c 322.789 628.48 324.938 627.715 327.402
 627.715 c 329.199 627.715 330.887 628.086 332.473 628.832 c 334.078 629.559
 335.34 630.773 336.258 632.473 c 336.258 614.359 l 341.07 614.359 l 341.07
 652.762 l 341.07 653.434 341.082 654.215 341.102 655.113 c 341.121 655.992
 341.137 656.672 341.156 657.148 c 341.242 659.641 l 336.832 659.641 l 336.258
 655.398 l 335.094 657.082 333.84 658.266 332.504 658.953 c 331.164 659.641
 329.457 659.984 327.375 659.984 c h
320.094 643.594 m 320.094 645.578 320.41 647.547 321.039 649.496 c 321.688
 651.445 322.652 653.059 323.934 654.34 c 325.215 655.621 326.762 656.258
 328.578 656.258 c 330.469 656.258 331.988 655.621 333.133 654.34 c 334.281
 653.039 335.082 651.445 335.539 649.555 c 336.02 647.66 336.258 645.715
 336.258 643.707 c 336.258 641.699 335.98 639.781 335.426 637.945 c 334.871
 636.113 333.973 634.602 332.73 633.418 c 331.492 632.215 329.895 631.613
 327.945 631.613 c 326.207 631.613 324.746 632.223 323.562 633.445 c 322.375
 634.652 321.496 636.18 320.926 638.031 c 320.371 639.867 320.094 641.719
 320.094 643.594 c h
320.094 643.594 m f
363.883 660.102 m 361.113 660.102 358.66 659.43 356.52 658.094 c 354.379
 656.758 352.719 654.875 351.531 652.449 c 350.367 650.02 349.785 647.242
 349.785 644.109 c 349.785 640.918 350.375 638.07 351.562 635.566 c 352.766
 633.047 354.406 631.078 356.492 629.664 c 358.574 628.25 360.887 627.543
 363.426 627.543 c 365.871 627.543 368.02 628.223 369.875 629.578 c 371.727
 630.914 373.172 632.91 374.203 635.566 c 375.234 638.223 375.75 641.453
 375.75 645.254 c 354.828 645.254 l 354.828 648.637 355.594 651.195 357.121
 652.934 c 358.668 654.656 360.902 655.516 363.828 655.516 c 365.738 655.516
 367.504 655.199 369.129 654.57 c 370.754 653.938 372.023 653.262 372.941
 652.535 c 375.348 656.316 l 374.621 656.949 373.648 657.559 372.426 658.152
 c 371.203 658.723 369.836 659.191 368.328 659.555 c 366.836 659.918 365.355
 660.102 363.883 660.102 c h
371.164 640.898 m 371.164 639.16 370.82 637.621 370.133 636.285 c 369.465
 634.945 368.527 633.914 367.324 633.188 c 366.141 632.445 364.801 632.07
 363.312 632.07 c 361.801 632.07 360.406 632.445 359.129 633.188 c 357.848
 633.914 356.824 634.957 356.062 636.312 c 355.316 637.648 354.941 639.18
 354.941 640.898 c h
371.164 640.898 m f
397.242 659.871 m 394.492 659.871 392.199 659.422 390.367 658.523 c 388.531
 657.605 386.832 656.242 385.266 654.426 c 388.246 651.273 l 389.316 652.305
 390.25 653.117 391.055 653.707 c 391.875 654.281 392.801 654.73 393.832
 655.055 c 394.863 655.359 396.098 655.516 397.531 655.516 c 399.441 655.516
 401.133 655.16 402.602 654.453 c 404.074 653.727 404.809 652.496 404.809
 650.758 c 404.809 649.859 404.57 649.152 404.094 648.637 c 403.617 648.121
 403.004 647.738 402.258 647.488 c 401.516 647.223 400.426 646.926 398.992
 646.602 c 397.578 646.277 396.672 646.055 396.27 645.941 c 393.957 645.312
 392.086 644.699 390.652 644.105 c 389.238 643.496 388.043 642.598 387.07
 641.414 c 386.094 640.23 385.609 638.664 385.609 636.715 c 385.609 634.688
 386.145 632.988 387.215 631.613 c 388.281 630.238 389.688 629.215 391.426
 628.547 c 393.184 627.875 395.105 627.543 397.188 627.543 c 401.602 627.543
 405.059 628.824 407.562 631.383 c 404.582 634.766 l 402.441 633.047 400.016
 632.184 397.301 632.184 c 396 632.184 394.816 632.355 393.746 632.699 c
 392.695 633.043 391.855 633.543 391.227 634.191 c 390.613 634.82 390.309
 635.586 390.309 636.484 c 390.309 637.594 390.777 638.52 391.711 639.266
 c 392.648 640.008 393.746 640.59 395.008 641.012 c 396.289 641.434 397.895
 641.871 399.824 642.332 c 401.523 642.73 402.945 643.141 404.094 643.562
 c 405.258 643.984 406.395 644.785 407.504 645.969 c 408.613 647.137 409.164
 648.73 409.164 650.758 c 409.164 653.012 408.594 654.816 407.445 656.172
 c 406.301 657.512 404.828 658.465 403.031 659.039 c 401.258 659.594 399.328
 659.871 397.242 659.871 c h
397.242 659.871 m f
433.27 659.93 m 430.422 659.93 427.898 659.297 425.703 658.035 c 423.523
 656.773 421.824 654.941 420.602 652.535 c 419.379 650.105 418.766 647.242
 418.766 643.938 c 418.766 640.648 419.406 637.785 420.688 635.34 c 421.969
 632.895 423.734 631.012 425.988 629.691 c 428.262 628.375 430.84 627.715
 433.727 627.715 c 435.848 627.715 437.77 628.164 439.488 629.062 c 441.207
 629.941 442.535 631 443.473 632.242 c 440.434 635.453 l 439.516 634.461
 438.551 633.668 437.539 633.074 c 436.527 632.48 435.273 632.188 433.785
 632.188 c 431.836 632.188 430.098 632.684 428.566 633.676 c 427.059 634.652
 425.875 636.016 425.016 637.773 c 424.172 639.512 423.754 641.512 423.754
 643.766 c 423.754 645.98 424.156 647.988 424.957 649.781 c 425.758 651.559
 426.887 652.965 428.34 653.996 c 429.789 655.008 431.453 655.516 433.324
 655.516 c 434.836 655.516 436.211 655.133 437.453 654.367 c 438.695 653.586
 439.859 652.59 440.949 651.387 c 443.871 654.656 l 442.992 655.629 442.094
 656.488 441.18 657.234 c 440.281 657.98 439.164 658.621 437.824 659.152
 c 436.488 659.668 434.969 659.926 433.27 659.926 c h
433.27 659.93 m f
459.176 643.191 m 459.176 639.887 459.117 637.547 459.004 636.168 c 458.906
 634.793 458.754 633.504 458.547 632.301 c 452.93 632.301 l 452.93 628.117
 l 462.27 628.117 l 462.73 633.789 l 463.609 631.688 464.852 630.121 466.457
 629.09 c 468.078 628.059 469.762 627.543 471.5 627.543 c 472.855 627.543
 474.277 627.84 475.77 628.43 c 477.277 629.023 478.473 629.738 479.352 
630.582 c 476.715 634.078 l 476.18 633.504 475.367 632.969 474.277 632.473
 c 473.211 631.977 472.016 631.727 470.695 631.727 c 469.074 631.727 467.773
 632.234 466.801 633.246 c 465.824 634.258 465.109 635.816 464.648 637.918
 c 464.211 640 463.992 642.715 463.992 646.055 c 463.992 659.641 l 459.176
 659.641 l h
459.176 643.191 m f
489.184 628.117 m 503.34 628.117 l 503.34 655.398 l 512.395 655.398 l 512.395
 659.641 l 488.551 659.641 l 488.551 655.398 l 498.469 655.398 l 498.469
 632.129 l 489.184 632.129 l h
496.52 618.027 m 496.52 616.652 496.805 615.68 497.379 615.105 c 497.953
 614.531 498.926 614.246 500.301 614.246 c 501.676 614.246 502.652 614.531
 503.227 615.105 c 503.797 615.68 504.086 616.652 504.086 618.027 c 504.086
 619.402 503.797 620.379 503.227 620.953 c 502.652 621.523 501.676 621.812
 500.301 621.812 c 498.926 621.812 497.953 621.523 497.379 620.953 c 496.805
 620.379 496.52 619.402 496.52 618.027 c h
496.52 618.027 m f
535.809 660.215 m 533.879 660.215 532.238 659.871 530.883 659.184 c 529.543
 658.477 528.34 657.312 527.27 655.688 c 527.098 659.641 l 522.398 659.641
 l 522.512 657.465 522.57 655.191 522.57 652.82 c 522.57 614.359 l 527.383
 614.359 l 527.383 633.734 l 528.434 631.879 529.727 630.457 531.254 629.465
 c 532.781 628.453 534.512 627.945 536.441 627.945 c 538.961 627.945 541.062
 628.672 542.746 630.121 c 544.426 631.574 545.68 633.57 546.5 636.113 c
 547.32 638.652 547.73 641.566 547.73 644.855 c 547.73 647.547 547.273 650.07
 546.355 652.418 c 545.457 654.75 544.113 656.633 542.316 658.066 c 540.52
 659.5 538.352 660.215 535.809 660.215 c h
527.211 645.312 m 527.211 647.203 527.469 648.988 527.988 650.672 c 528.504
 652.352 529.332 653.738 530.48 654.828 c 531.625 655.895 533.078 656.43
 534.836 656.43 c 536.727 656.43 538.273 655.906 539.48 654.855 c 540.684
 653.805 541.551 652.438 542.086 650.758 c 542.641 649.055 542.918 647.203
 542.918 645.195 c 542.918 641.281 542.324 638.117 541.141 635.711 c 539.957
 633.285 538.066 632.07 535.465 632.07 c 532.695 632.07 530.621 633.305 
529.246 635.77 c 527.891 638.215 527.211 641.395 527.211 645.312 c h
527.211 645.312 m f
570.23 660.102 m 567.461 660.102 565.004 659.43 562.863 658.094 c 560.723
 656.758 559.062 654.875 557.879 652.449 c 556.711 650.02 556.129 647.242
 556.129 644.109 c 556.129 640.918 556.723 638.07 557.906 635.566 c 559.109
 633.047 560.754 631.078 562.836 629.664 c 564.918 628.25 567.23 627.543
 569.77 627.543 c 572.215 627.543 574.367 628.223 576.219 629.578 c 578.074
 630.914 579.516 632.91 580.547 635.566 c 581.578 638.223 582.094 641.453
 582.094 645.254 c 561.172 645.254 l 561.172 648.637 561.938 651.195 563.465
 652.934 c 565.016 654.656 567.25 655.516 570.172 655.516 c 572.082 655.516
 573.852 655.199 575.473 654.57 c 577.098 653.938 578.367 653.262 579.285
 652.535 c 581.695 656.316 l 580.969 656.949 579.992 657.559 578.77 658.152
 c 577.547 658.723 576.18 659.191 574.672 659.555 c 573.184 659.918 571.699
 660.102 570.23 660.102 c h
577.508 640.898 m 577.508 639.16 577.164 637.621 576.477 636.285 c 575.809
 634.945 574.871 633.914 573.668 633.188 c 572.484 632.445 571.148 632.07
 569.656 632.07 c 568.148 632.07 566.754 632.445 565.473 633.188 c 564.191
 633.914 563.172 634.957 562.406 636.312 c 561.66 637.648 561.289 639.18
 561.289 640.898 c h
577.508 640.898 m f
1 g
0 J
q 1 0 0 1 0 0 cm
157.934 402.223 m 60.734 402.223 l 60.734 291.098 l 171.859 291.098 l 171.859
 366.57 l S Q
q 1 0 0 1 0 0 cm
485.934 366.57 m 485.934 291.098 l 597.059 291.098 l 597.059 402.223 l 
485.934 402.223 l 485.934 395.066 l S Q
1 0.74902 0.176471 rg
1 J
q 1 0 0 1 0 0 cm
1.418 367.996 119.676 119.676 re S Q
q 1 0 0 1 0 0 cm
536.703 367.996 119.672 119.676 re S Q
0.054902 g
0 J
q 1 0 0 1 0 0 cm
375.637 73.41 m 375.637 37.371 l S Q
q 1 0 0 1 0 0 cm
375.637 31.137 m 375.637 13.188 l S Q
q 1 0 0 1 0 0 cm
375.641 6.953 m 375.641 0 l S Q
q 1 0 0 1 0 0 cm
282.156 73.41 m 282.156 37.371 l S Q
q 1 0 0 1 0 0 cm
282.156 31.137 m 282.156 13.188 l S Q
q 1 0 0 1 0 0 cm
282.156 6.953 m 282.156 0 l S Q
1 0.74902 0.176471 rg
314.723 109.27 28.348 28.344 re f
283.379 77.926 28.348 28.348 re f
346.066 77.926 28.348 28.348 re f
0.4 g
2.834645 w
1 J
q 1 0 0 1 0 0 cm
314.648 214.816 28.496 28.492 re S Q
q 1 0 0 1 0 0 cm
283.305 183.473 28.496 28.492 re S Q
q 1 0 0 1 0 0 cm
345.992 183.473 28.496 28.492 re S Q
1 0.74902 0.176471 rg
157.934 460.602 28.492 28.492 re f
220.621 460.602 28.492 28.492 re f
283.309 460.602 28.492 28.492 re f
408.68 460.602 28.496 28.492 re f
440.023 460.602 28.496 28.492 re f
471.367 460.602 28.492 28.492 re f
157.934 429.258 28.492 28.492 re f
189.277 429.258 28.492 28.492 re f
220.621 429.258 28.492 28.492 re f
283.309 429.258 28.492 28.492 re f
314.652 429.258 28.492 28.492 re f
345.992 429.258 28.496 28.492 re f
408.68 429.258 28.496 28.492 re f
157.934 397.914 28.492 28.496 re f
220.621 397.914 28.492 28.496 re f
283.309 397.914 28.492 28.496 re f
345.992 397.914 28.496 28.496 re f
408.68 397.914 28.496 28.496 re f
220.621 366.57 28.492 28.496 re f
283.309 366.57 28.492 28.496 re f
314.652 366.57 28.492 28.496 re f
345.992 366.57 28.496 28.496 re f
408.68 366.57 28.496 28.496 re f
440.023 366.57 28.496 28.496 re f
471.367 366.57 28.492 28.496 re f
157.934 366.57 28.492 28.496 re f
0.054902 g
0 571.832 m 0 525.934 l 37.023 525.934 l 39.492 525.934 41.598 526.828 
43.344 528.613 c 45.09 530.359 45.961 532.426 45.961 534.809 c 45.961 547.191
 l 45.961 549.617 45.09 551.703 43.344 553.445 c 41.598 555.191 39.492 556.062
 37.023 556.062 c 34.535 556.062 l 45.895 569.469 l 45.895 571.832 l 36.703
 571.832 l 23.492 556.062 l 8.426 556.129 l 8.426 571.832 l h
10.66 547.574 m 35.234 547.574 l 36.387 547.574 37.023 547.512 37.152 547.383
 c 37.32 547.254 37.406 546.594 37.406 545.402 c 37.406 536.594 l 37.406
 535.402 37.32 534.742 37.152 534.617 c 37.023 534.445 36.387 534.359 35.234
 534.359 c 10.66 534.359 l 9.469 534.359 8.789 534.445 8.617 534.617 c 8.488
 534.742 8.426 535.402 8.426 536.594 c 8.426 545.402 l 8.426 546.594 8.488
 547.254 8.617 547.383 c 8.789 547.512 9.469 547.574 10.66 547.574 c h
10.66 547.574 m f
52.855 571.832 m 52.855 525.871 l 95.176 525.871 l 95.176 534.359 l 61.344
 534.359 l 61.344 544.574 l 88.539 544.574 l 88.539 553.129 l 61.344 553.129
 l 61.344 563.34 l 95.176 563.34 l 95.176 571.832 l h
52.855 571.832 m f
101.625 571.832 m 101.625 525.934 l 138.648 525.934 l 141.117 525.934 143.223
 526.828 144.965 528.613 c 146.711 530.359 147.582 532.426 147.582 534.809
 c 147.582 547.191 l 147.582 549.617 146.711 551.703 144.965 553.445 c 143.223
 555.191 141.117 556.062 138.648 556.062 c 110.051 556.129 l 110.051 571.832
 l h
112.285 547.574 m 136.859 547.574 l 138.008 547.574 138.668 547.512 138.84
 547.383 c 139.008 547.254 139.094 546.594 139.094 545.402 c 139.094 536.594
 l 139.094 535.402 139.008 534.742 138.84 534.617 c 138.668 534.445 138.008
 534.359 136.859 534.359 c 112.285 534.359 l 111.094 534.359 110.41 534.445
 110.242 534.617 c 110.113 534.742 110.051 535.402 110.051 536.594 c 110.051
 545.402 l 110.051 546.594 110.113 547.254 110.242 547.383 c 110.41 547.512
 111.094 547.574 112.285 547.574 c h
112.285 547.574 m f
152.051 571.832 m 152.051 525.934 l 189.074 525.934 l 191.543 525.934 193.652
 526.828 195.395 528.613 c 197.141 530.359 198.012 532.426 198.012 534.809
 c 198.012 547.191 l 198.012 549.617 197.141 551.703 195.395 553.445 c 193.652
 555.191 191.543 556.062 189.074 556.062 c 186.586 556.062 l 197.949 569.469
 l 197.949 571.832 l 188.758 571.832 l 175.543 556.062 l 160.477 556.129
 l 160.477 571.832 l h
162.711 547.574 m 187.289 547.574 l 188.438 547.574 189.074 547.512 189.203
 547.383 c 189.375 547.254 189.457 546.594 189.457 545.402 c 189.457 536.594
 l 189.457 535.402 189.375 534.742 189.203 534.617 c 189.074 534.445 188.438
 534.359 187.289 534.359 c 162.711 534.359 l 161.52 534.359 160.84 534.445
 160.668 534.617 c 160.543 534.742 160.477 535.402 160.477 536.594 c 160.477
 545.402 l 160.477 546.594 160.543 547.254 160.668 547.383 c 160.84 547.512
 161.52 547.574 162.711 547.574 c h
162.711 547.574 m f
213.523 571.832 m 211.098 571.832 209.012 570.957 207.27 569.215 c 205.523
 567.469 204.652 565.383 204.652 562.957 c 204.652 534.742 l 204.652 532.316
 205.523 530.23 207.27 528.488 c 209.012 526.742 211.098 525.871 213.523
 525.871 c 241.738 525.871 l 244.164 525.871 246.25 526.742 247.996 528.488
 c 249.738 530.23 250.613 532.316 250.613 534.742 c 250.613 562.957 l 250.613
 565.383 249.738 567.469 247.996 569.215 c 246.25 570.957 244.164 571.832
 241.738 571.832 c h
215.312 563.34 m 239.887 563.34 l 241.035 563.34 241.695 563.277 241.867
 563.148 c 242.035 562.98 242.121 562.297 242.121 561.105 c 242.121 536.594
 l 242.121 535.402 242.035 534.742 241.867 534.613 c 241.695 534.445 241.035
 534.359 239.887 534.359 c 215.312 534.359 l 214.121 534.359 213.438 534.445
 213.27 534.613 c 213.141 534.742 213.078 535.402 213.078 536.594 c 213.078
 561.105 l 213.078 562.297 213.141 562.98 213.27 563.148 c 213.438 563.277
 214.121 563.34 215.312 563.34 c h
215.312 563.34 m f
257.762 571.832 m 257.762 525.871 l 294.785 525.871 l 297.254 525.871 299.359
 526.742 301.105 528.488 c 302.848 530.23 303.723 532.316 303.723 534.742
 c 303.723 562.957 l 303.723 565.383 302.848 567.469 301.105 569.215 c 299.359
 570.957 297.254 571.832 294.785 571.832 c h
268.422 563.34 m 292.996 563.34 l 294.145 563.34 294.805 563.277 294.977
 563.148 c 295.145 562.98 295.23 562.297 295.23 561.105 c 295.23 536.594
 l 295.23 535.402 295.145 534.742 294.977 534.613 c 294.805 534.445 294.145
 534.359 292.996 534.359 c 268.422 534.359 l 267.23 534.359 266.547 534.445
 266.379 534.613 c 266.25 534.742 266.188 535.402 266.188 536.594 c 266.188
 561.105 l 266.188 562.297 266.25 562.98 266.379 563.148 c 266.547 563.277
 267.23 563.34 268.422 563.34 c h
268.422 563.34 m f
1 0.74902 0.176471 rg
319.617 571.832 m 317.191 571.832 315.105 570.957 313.359 569.215 c 311.617
 567.469 310.742 565.383 310.742 562.957 c 310.742 525.871 l 319.168 525.871
 l 319.168 561.105 l 319.168 562.297 319.234 562.98 319.359 563.148 c 319.531
 563.277 320.211 563.34 321.402 563.34 c 345.98 563.34 l 347.129 563.34 
347.789 563.277 347.957 563.148 c 348.129 562.98 348.215 562.297 348.215
 561.105 c 348.215 525.871 l 356.703 525.871 l 356.703 562.957 l 356.703
 565.383 355.832 567.469 354.086 569.215 c 352.34 570.957 350.258 571.832
 347.832 571.832 c h
319.617 571.832 m f
0.054902 g
372.598 571.832 m 370.172 571.832 368.086 570.957 366.344 569.215 c 364.598
 567.469 363.727 565.383 363.727 562.957 c 363.727 534.742 l 363.727 532.316
 364.598 530.23 366.344 528.488 c 368.086 526.742 370.172 525.871 372.598
 525.871 c 409.559 525.871 l 409.559 534.359 l 374.387 534.359 l 373.195
 534.359 372.512 534.445 372.344 534.617 c 372.215 534.742 372.152 535.402
 372.152 536.594 c 372.152 561.105 l 372.152 562.297 372.215 562.98 372.344
 563.148 c 372.512 563.277 373.195 563.34 374.387 563.34 c 409.559 563.34
 l 409.559 571.832 l h
372.598 571.832 m f
415.941 525.871 8.363 45.961 re f
430.047 571.832 m 430.047 525.871 l 465.285 525.871 l 467.711 525.871 469.797
 526.742 471.539 528.488 c 473.285 530.23 474.156 532.316 474.156 534.742
 c 474.156 543.742 l 474.156 544.297 474.113 544.828 474.031 545.34 c 473.945
 545.852 473.797 546.34 473.582 546.809 c 474.305 547.785 474.883 548.809
 475.305 549.871 c 475.773 550.938 476.008 552 476.008 553.062 c 476.008
 562.957 l 476.008 565.383 475.137 567.469 473.391 569.215 c 471.648 570.957
 469.539 571.832 467.07 571.832 c h
440.707 563.34 m 465.285 563.34 l 466.434 563.34 467.094 563.277 467.262
 563.148 c 467.434 562.98 467.52 562.297 467.52 561.105 c 467.52 554.914
 l 467.52 553.723 467.434 553.062 467.262 552.934 c 467.094 552.766 466.434
 552.68 465.285 552.68 c 440.707 552.68 l 439.516 552.68 438.836 552.766
 438.664 552.934 c 438.539 553.062 438.473 553.723 438.473 554.914 c 438.473
 561.105 l 438.473 562.297 438.539 562.98 438.664 563.148 c 438.836 563.277
 439.516 563.34 440.707 563.34 c h
440.707 544.191 m 463.434 544.191 l 464.625 544.191 465.285 544.125 465.414
 544 c 465.539 543.828 465.605 543.148 465.605 541.957 c 465.605 536.594
 l 465.605 535.402 465.539 534.742 465.414 534.613 c 465.285 534.445 464.625
 534.359 463.434 534.359 c 440.707 534.359 l 439.516 534.359 438.836 534.445
 438.664 534.613 c 438.539 534.742 438.473 535.402 438.473 536.594 c 438.473
 541.957 l 438.473 543.148 438.539 543.828 438.664 544 c 438.836 544.125
 439.516 544.191 440.707 544.191 c h
440.707 544.191 m f
482.711 525.871 8.363 45.961 re f
496.691 571.832 m 496.691 525.805 l 505.117 525.805 l 505.117 563.34 l 
542.652 563.34 l 542.652 571.832 l h
496.691 571.832 m f
546.098 525.871 8.363 45.961 re f
577.363 571.832 m 577.363 534.359 l 558.594 534.359 l 558.594 525.871 l
 604.555 525.871 l 604.555 534.359 l 585.852 534.359 l 585.852 571.832 l
 h
577.363 571.832 m f
628.047 571.832 m 628.047 554.594 l 606.855 525.871 l 616.812 525.871 l
 632.324 545.34 l 647.707 525.871 l 657.793 525.871 l 636.535 554.66 l 636.535
 571.832 l h
628.047 571.832 m f
Q Q
showpage
%%Trailer
end
%%EOF
